{"properties":[{"id":16,"propertyType":{"id":3,"name":"Terrain"},"prix":5000000000000,"surface":49,"pieces":0,"etage":0,"address":{"id":18,"street":"4 Rue de Chevreuse","commune":{"code":12018,"name":"Boukhadra","arabic_name":"بوخضرة","wilaya":{"code":12,"name":"Tébessa","arabic_name":"تبسة"}}},"hasElevator":false,"hasBalcony":false,"hasGarden":false,"hasPool":false,"hasGarage":false,"hasSecurity":false,"hasAirConditioning":false,"hasHeating":false,"isFurnished":false,"annonce":{"id":15,"titre":"kljhlkjh","description":"jhgkjhg","annonceType":"vente","views":0,"featured":false,"createdAt":"2025-08-08T13:59:18.746Z","updatedAt":"2025-08-08T14:00:18.052Z","motif_refus":null,"status":{"id":2,"name":"active"}},"images":[{"id":21,"url":"http://localhost:5000/uploads/1754661558385-420285732.jpg","isPrincipal":true}],"user":{"id":6,"firstName":"Lyna","lastName":"Boulheouchat","email":"lynaboulheou@gmail.com","password":"$2b$10$e0ewuaWuWigeaQa3GrC0muLKBziW5wCcR5ckUYQkJyv1PDRNCQEZa","phone":"0605863629","status":"active","createdAt":"2025-07-25T22:46:16.127Z","updatedAt":"2025-07-25T22:46:16.127Z"}}],"total":8,"page":1,"limit":1,"totalPages":8}